if(count($order_detail) < 20){
                            for ($i=0; $i < 20 - count($order_detail) ; $i++) { 
                                ?>
                        <tr style="opacity: 0;">
                            <td style="text-align: center;">-</td>
                            <td>-</td>
                            <td style="text-align: center;">-</td>
                            <td style="text-align: right;">-</td>
                            <td style="text-align: right;">-</td>
                        </tr>
                        <?php        
                            } 
                         }else{
                         }